{
    "className": "relmat",
    "title": "Похожие материалы",
    "description": "Плагин на основе ключевых слов материала проводит поиск по сайту и выводит подобные по теме результаты.",
    "limit": 4,
    "only_active_module": 1
}